{
  "users": [
    {
      "name": "nano123",
      "email": "nano@gmail.com",
      "pass": "nano123",
      "id": 1
    },
    {
      "name": "alaa123",
      "email": "alaa@gmail.com",
      "pass": "alaa123",
      "id": 2
    },
    {
      "name": "baba123",
      "email": "baba@gmail.com",
      "pass": "nano123",
      "id": 3
    }
  ]
}